EESchema Schematic File Version 4
EELAYER 26 0
EELAYER END
$Descr A4 11693 8268
encoding utf-8
Sheet 1 1
Title ""
Date ""
Rev ""
Comp ""
Comment1 ""
Comment2 ""
Comment3 ""
Comment4 ""
$EndDescr
$Comp
L Regulator_Switching:CRE1S0505DC U?
U 1 1 5C83B256
P 2750 1800
F 0 "U?" H 2750 2267 50  0000 C CNN
F 1 "CRE1S0505DC" H 2750 2176 50  0000 C CNN
F 2 "Converter_DCDC:Converter_DCDC_muRata_CRE1xxxxxxDC_THT" H 2750 1450 50  0001 C CNN
F 3 "http://power.murata.com/datasheet?/data/power/ncl/kdc_cre1.pdf" H 2750 1300 50  0001 C CNN
	1    2750 1800
	1    0    0    -1  
$EndComp
$Comp
L Power_Management:LMG3410 Q?
U 1 1 5C83B4D3
P 8000 2050
F 0 "Q?" H 8279 2096 50  0000 L CNN
F 1 "LMG3410" H 8279 2005 50  0000 L CNN
F 2 "Package_DFN_QFN:Texas_RWH0032A_ThermalVias" H 8000 2050 50  0001 C CIN
F 3 "http://www.ti.com/lit/ds/snosd10c/snosd10c.pdf" H 8050 2050 50  0001 L CNN
	1    8000 2050
	1    0    0    -1  
$EndComp
$Comp
L fab:NMOSFETSOT23 T?
U 1 1 5C83B9BA
P 4750 3750
F 0 "T?" H 4857 3792 45  0000 L CNN
F 1 "NMOSFETSOT23" H 4857 3708 45  0000 L CNN
F 2 "fab_SOT-23" H 4780 3900 20  0001 C CNN
F 3 "" H 4750 3750 50  0001 C CNN
	1    4750 3750
	1    0    0    -1  
$EndComp
$Comp
L fab:NMOSFETSOT23 T?
U 1 1 5C83BA04
P 4750 4650
F 0 "T?" H 4857 4692 45  0000 L CNN
F 1 "NMOSFETSOT23" H 4857 4608 45  0000 L CNN
F 2 "fab_SOT-23" H 4780 4800 20  0001 C CNN
F 3 "" H 4750 4650 50  0001 C CNN
	1    4750 4650
	1    0    0    -1  
$EndComp
$Comp
L fab:NMOSFETSOT23 T?
U 1 1 5C83BA8C
P 6600 3750
F 0 "T?" H 6707 3792 45  0000 L CNN
F 1 "NMOSFETSOT23" H 6707 3708 45  0000 L CNN
F 2 "fab_SOT-23" H 6630 3900 20  0001 C CNN
F 3 "" H 6600 3750 50  0001 C CNN
	1    6600 3750
	1    0    0    -1  
$EndComp
$Comp
L fab:NMOSFETSOT23 T?
U 1 1 5C83BADD
P 6600 4650
F 0 "T?" H 6707 4692 45  0000 L CNN
F 1 "NMOSFETSOT23" H 6707 4608 45  0000 L CNN
F 2 "fab_SOT-23" H 6630 4800 20  0001 C CNN
F 3 "" H 6600 4650 50  0001 C CNN
	1    6600 4650
	1    0    0    -1  
$EndComp
Wire Wire Line
	4750 3950 4750 4200
$Comp
L power:VDD #PWR?
U 1 1 5C83BB30
P 4750 3250
F 0 "#PWR?" H 4750 3100 50  0001 C CNN
F 1 "VDD" H 4767 3423 50  0000 C CNN
F 2 "" H 4750 3250 50  0001 C CNN
F 3 "" H 4750 3250 50  0001 C CNN
	1    4750 3250
	1    0    0    -1  
$EndComp
$Comp
L power:VDD #PWR?
U 1 1 5C83BB6B
P 6600 3250
F 0 "#PWR?" H 6600 3100 50  0001 C CNN
F 1 "VDD" H 6617 3423 50  0000 C CNN
F 2 "" H 6600 3250 50  0001 C CNN
F 3 "" H 6600 3250 50  0001 C CNN
	1    6600 3250
	1    0    0    -1  
$EndComp
$Comp
L power:GNDD #PWR?
U 1 1 5C83BC39
P 4750 5350
F 0 "#PWR?" H 4750 5100 50  0001 C CNN
F 1 "GNDD" H 4754 5195 50  0000 C CNN
F 2 "" H 4750 5350 50  0001 C CNN
F 3 "" H 4750 5350 50  0001 C CNN
	1    4750 5350
	1    0    0    -1  
$EndComp
$Comp
L power:GNDD #PWR?
U 1 1 5C83BC74
P 6600 5300
F 0 "#PWR?" H 6600 5050 50  0001 C CNN
F 1 "GNDD" H 6604 5145 50  0000 C CNN
F 2 "" H 6600 5300 50  0001 C CNN
F 3 "" H 6600 5300 50  0001 C CNN
	1    6600 5300
	1    0    0    -1  
$EndComp
$Comp
L Device:R_US R?
U 1 1 5C83BF1C
P 4750 5100
F 0 "R?" H 4818 5146 50  0000 L CNN
F 1 "R_US" H 4818 5055 50  0000 L CNN
F 2 "" V 4790 5090 50  0001 C CNN
F 3 "~" H 4750 5100 50  0001 C CNN
	1    4750 5100
	1    0    0    -1  
$EndComp
$Comp
L Device:C C?
U 1 1 5C83C04F
P 5050 4350
F 0 "C?" H 5165 4396 50  0000 L CNN
F 1 "C" H 5165 4305 50  0000 L CNN
F 2 "" H 5088 4200 50  0001 C CNN
F 3 "~" H 5050 4350 50  0001 C CNN
	1    5050 4350
	1    0    0    -1  
$EndComp
Wire Wire Line
	4750 4850 4750 4950
Wire Wire Line
	4750 5350 4750 5250
$Comp
L Device:C C?
U 1 1 5C83C12B
P 5100 3550
F 0 "C?" H 5215 3596 50  0000 L CNN
F 1 "C" H 5215 3505 50  0000 L CNN
F 2 "" H 5138 3400 50  0001 C CNN
F 3 "~" H 5100 3550 50  0001 C CNN
	1    5100 3550
	1    0    0    -1  
$EndComp
Wire Wire Line
	4750 3550 4750 3400
Wire Wire Line
	5100 3400 4750 3400
Connection ~ 4750 3400
Wire Wire Line
	4750 3400 4750 3250
Wire Wire Line
	5050 4200 4750 4200
Connection ~ 4750 4200
Wire Wire Line
	4750 4200 4750 4450
$Comp
L power:GNDD #PWR?
U 1 1 5C83C1EB
P 5050 4500
F 0 "#PWR?" H 5050 4250 50  0001 C CNN
F 1 "GNDD" H 5054 4345 50  0000 C CNN
F 2 "" H 5050 4500 50  0001 C CNN
F 3 "" H 5050 4500 50  0001 C CNN
	1    5050 4500
	1    0    0    -1  
$EndComp
$Comp
L power:GNDD #PWR?
U 1 1 5C83C208
P 5100 3700
F 0 "#PWR?" H 5100 3450 50  0001 C CNN
F 1 "GNDD" H 5104 3545 50  0000 C CNN
F 2 "" H 5100 3700 50  0001 C CNN
F 3 "" H 5100 3700 50  0001 C CNN
	1    5100 3700
	1    0    0    -1  
$EndComp
Wire Wire Line
	6600 3550 6600 3350
Wire Wire Line
	6600 4450 6600 4200
Connection ~ 6600 4200
Wire Wire Line
	6600 4200 6600 3950
$Comp
L Device:R_US R?
U 1 1 5C83C379
P 7400 4600
F 0 "R?" H 7468 4646 50  0000 L CNN
F 1 "R_US" H 7468 4555 50  0000 L CNN
F 2 "" V 7440 4590 50  0001 C CNN
F 3 "~" H 7400 4600 50  0001 C CNN
	1    7400 4600
	1    0    0    -1  
$EndComp
Wire Wire Line
	7400 4200 7400 4450
Wire Wire Line
	6600 4200 7400 4200
$Comp
L power:GNDD #PWR?
U 1 1 5C83C472
P 7400 4750
F 0 "#PWR?" H 7400 4500 50  0001 C CNN
F 1 "GNDD" H 7404 4595 50  0000 C CNN
F 2 "" H 7400 4750 50  0001 C CNN
F 3 "" H 7400 4750 50  0001 C CNN
	1    7400 4750
	1    0    0    -1  
$EndComp
Wire Wire Line
	6600 4850 6600 5300
$Comp
L Device:C C?
U 1 1 5C83C55E
P 7000 3500
F 0 "C?" H 7115 3546 50  0000 L CNN
F 1 "C" H 7115 3455 50  0000 L CNN
F 2 "" H 7038 3350 50  0001 C CNN
F 3 "~" H 7000 3500 50  0001 C CNN
	1    7000 3500
	1    0    0    -1  
$EndComp
Wire Wire Line
	7000 3350 6600 3350
Connection ~ 6600 3350
Wire Wire Line
	6600 3350 6600 3250
$Comp
L power:GNDD #PWR?
U 1 1 5C83C66B
P 7000 3650
F 0 "#PWR?" H 7000 3400 50  0001 C CNN
F 1 "GNDD" H 7004 3495 50  0000 C CNN
F 2 "" H 7000 3650 50  0001 C CNN
F 3 "" H 7000 3650 50  0001 C CNN
	1    7000 3650
	1    0    0    -1  
$EndComp
$EndSCHEMATC
